%YAML 1.1
%TAG !u! tag:unity3d.com,2011:
--- !u!1 &5841413865101874266
GameObject:
  m_ObjectHideFlags: 0
  m_CorrespondingSourceObject: {fileID: 0}
  m_PrefabInstance: {fileID: 0}
  m_PrefabAsset: {fileID: 0}
  serializedVersion: 6
  m_Component:
  - component: {fileID: 5090609047745543415}
  m_Layer: 0
  m_Name: ArcherModel
  m_TagString: Untagged
  m_Icon: {fileID: 0}
  m_NavMeshLayer: 0
  m_StaticEditorFlags: 0
  m_IsActive: 1
--- !u!4 &5090609047745543415
Transform:
  m_ObjectHideFlags: 0
  m_CorrespondingSourceObject: {fileID: 0}
  m_PrefabInstance: {fileID: 0}
  m_PrefabAsset: {fileID: 0}
  m_GameObject: {fileID: 5841413865101874266}
  m_LocalRotation: {x: 0, y: 0, z: 0, w: 1}
  m_LocalPosition: {x: 0, y: 0, z: 0}
  m_LocalScale: {x: 5, y: 5, z: 5}
  m_Children:
  - {fileID: 1292158427398789351}
  m_Father: {fileID: 0}
  m_RootOrder: 0
  m_LocalEulerAnglesHint: {x: 0, y: 0, z: 0}
--- !u!1001 &1613434646083452684
PrefabInstance:
  m_ObjectHideFlags: 0
  serializedVersion: 2
  m_Modification:
    m_TransformParent: {fileID: 5090609047745543415}
    m_Modifications:
    - target: {fileID: -8679921383154817045, guid: d5b035245ee6c9042bd72e2e6771687c, type: 3}
      propertyPath: m_RootOrder
      value: 0
      objectReference: {fileID: 0}
    - target: {fileID: -8679921383154817045, guid: d5b035245ee6c9042bd72e2e6771687c, type: 3}
      propertyPath: m_LocalPosition.x
      value: -0.062354144
      objectReference: {fileID: 0}
    - target: {fileID: -8679921383154817045, guid: d5b035245ee6c9042bd72e2e6771687c, type: 3}
      propertyPath: m_LocalPosition.y
      value: 0
      objectReference: {fileID: 0}
    - target: {fileID: -8679921383154817045, guid: d5b035245ee6c9042bd72e2e6771687c, type: 3}
      propertyPath: m_LocalPosition.z
      value: 0
      objectReference: {fileID: 0}
    - target: {fileID: -8679921383154817045, guid: d5b035245ee6c9042bd72e2e6771687c, type: 3}
      propertyPath: m_LocalRotation.w
      value: 0.7071067
      objectReference: {fileID: 0}
    - target: {fileID: -8679921383154817045, guid: d5b035245ee6c9042bd72e2e6771687c, type: 3}
      propertyPath: m_LocalRotation.x
      value: -0.7071068
      objectReference: {fileID: 0}
    - target: {fileID: -8679921383154817045, guid: d5b035245ee6c9042bd72e2e6771687c, type: 3}
      propertyPath: m_LocalRotation.y
      value: 0
      objectReference: {fileID: 0}
    - target: {fileID: -8679921383154817045, guid: d5b035245ee6c9042bd72e2e6771687c, type: 3}
      propertyPath: m_LocalRotation.z
      value: -0
      objectReference: {fileID: 0}
    - target: {fileID: -8679921383154817045, guid: d5b035245ee6c9042bd72e2e6771687c, type: 3}
      propertyPath: m_LocalEulerAnglesHint.x
      value: 0
      objectReference: {fileID: 0}
    - target: {fileID: -8679921383154817045, guid: d5b035245ee6c9042bd72e2e6771687c, type: 3}
      propertyPath: m_LocalEulerAnglesHint.y
      value: 0
      objectReference: {fileID: 0}
    - target: {fileID: -8679921383154817045, guid: d5b035245ee6c9042bd72e2e6771687c, type: 3}
      propertyPath: m_LocalEulerAnglesHint.z
      value: 0
      objectReference: {fileID: 0}
    - target: {fileID: -7511558181221131132, guid: d5b035245ee6c9042bd72e2e6771687c, type: 3}
      propertyPath: m_Materials.Array.data[0]
      value: 
      objectReference: {fileID: 2100000, guid: d45f489fefe7988499482f7cdb84f1e8, type: 2}
    - target: {fileID: -5442666485913885901, guid: d5b035245ee6c9042bd72e2e6771687c, type: 3}
      propertyPath: m_Materials.Array.data[0]
      value: 
      objectReference: {fileID: 2100000, guid: 18b926a59eb4777488971a9c3842fc64, type: 2}
    - target: {fileID: -4683669308469848369, guid: d5b035245ee6c9042bd72e2e6771687c, type: 3}
      propertyPath: m_Materials.Array.data[0]
      value: 
      objectReference: {fileID: 2100000, guid: db6e0876eeb0e30469d04c26e52dedbb, type: 2}
    - target: {fileID: -797840364802119739, guid: d5b035245ee6c9042bd72e2e6771687c, type: 3}
      propertyPath: m_Materials.Array.data[0]
      value: 
      objectReference: {fileID: 2100000, guid: db6e0876eeb0e30469d04c26e52dedbb, type: 2}
    - target: {fileID: 919132149155446097, guid: d5b035245ee6c9042bd72e2e6771687c, type: 3}
      propertyPath: m_Name
      value: przeciwnik_lucznik
      objectReference: {fileID: 0}
    - target: {fileID: 2020585645990375441, guid: d5b035245ee6c9042bd72e2e6771687c, type: 3}
      propertyPath: m_Materials.Array.data[0]
      value: 
      objectReference: {fileID: 2100000, guid: 18b926a59eb4777488971a9c3842fc64, type: 2}
    - target: {fileID: 8100320773420232829, guid: d5b035245ee6c9042bd72e2e6771687c, type: 3}
      propertyPath: m_Materials.Array.data[0]
      value: 
      objectReference: {fileID: 2100000, guid: d45f489fefe7988499482f7cdb84f1e8, type: 2}
    m_RemovedComponents: []
  m_SourcePrefab: {fileID: 100100000, guid: d5b035245ee6c9042bd72e2e6771687c, type: 3}
--- !u!4 &1292158427398789351 stripped
Transform:
  m_CorrespondingSourceObject: {fileID: -8679921383154817045, guid: d5b035245ee6c9042bd72e2e6771687c, type: 3}
  m_PrefabInstance: {fileID: 1613434646083452684}
  m_PrefabAsset: {fileID: 0}
