%YAML 1.1
%TAG !u! tag:unity3d.com,2011:
--- !u!1 &8390995011955520412
GameObject:
  m_ObjectHideFlags: 0
  m_CorrespondingSourceObject: {fileID: 0}
  m_PrefabInstance: {fileID: 0}
  m_PrefabAsset: {fileID: 0}
  serializedVersion: 6
  m_Component:
  - component: {fileID: 3023678425862387725}
  m_Layer: 0
  m_Name: Blue
  m_TagString: Untagged
  m_Icon: {fileID: 0}
  m_NavMeshLayer: 0
  m_StaticEditorFlags: 0
  m_IsActive: 1
--- !u!4 &3023678425862387725
Transform:
  m_ObjectHideFlags: 0
  m_CorrespondingSourceObject: {fileID: 0}
  m_PrefabInstance: {fileID: 0}
  m_PrefabAsset: {fileID: 0}
  m_GameObject: {fileID: 8390995011955520412}
  m_LocalRotation: {x: 0, y: 0, z: 0, w: 1}
  m_LocalPosition: {x: 0, y: 0, z: 0}
  m_LocalScale: {x: 1, y: 1, z: 1}
  m_Children:
  - {fileID: 3384873522245321308}
  m_Father: {fileID: 0}
  m_RootOrder: 0
  m_LocalEulerAnglesHint: {x: 0, y: 0, z: 0}
--- !u!1001 &2986948636647335351
PrefabInstance:
  m_ObjectHideFlags: 0
  serializedVersion: 2
  m_Modification:
    m_TransformParent: {fileID: 3023678425862387725}
    m_Modifications:
    - target: {fileID: -8679921383154817045, guid: 29bc3b5935a467243bac1e8417132fa9, type: 3}
      propertyPath: m_RootOrder
      value: 0
      objectReference: {fileID: 0}
    - target: {fileID: -8679921383154817045, guid: 29bc3b5935a467243bac1e8417132fa9, type: 3}
      propertyPath: m_LocalPosition.x
      value: 0
      objectReference: {fileID: 0}
    - target: {fileID: -8679921383154817045, guid: 29bc3b5935a467243bac1e8417132fa9, type: 3}
      propertyPath: m_LocalPosition.y
      value: 0
      objectReference: {fileID: 0}
    - target: {fileID: -8679921383154817045, guid: 29bc3b5935a467243bac1e8417132fa9, type: 3}
      propertyPath: m_LocalPosition.z
      value: 0
      objectReference: {fileID: 0}
    - target: {fileID: -8679921383154817045, guid: 29bc3b5935a467243bac1e8417132fa9, type: 3}
      propertyPath: m_LocalRotation.w
      value: 1
      objectReference: {fileID: 0}
    - target: {fileID: -8679921383154817045, guid: 29bc3b5935a467243bac1e8417132fa9, type: 3}
      propertyPath: m_LocalRotation.x
      value: 0
      objectReference: {fileID: 0}
    - target: {fileID: -8679921383154817045, guid: 29bc3b5935a467243bac1e8417132fa9, type: 3}
      propertyPath: m_LocalRotation.y
      value: 0
      objectReference: {fileID: 0}
    - target: {fileID: -8679921383154817045, guid: 29bc3b5935a467243bac1e8417132fa9, type: 3}
      propertyPath: m_LocalRotation.z
      value: 0
      objectReference: {fileID: 0}
    - target: {fileID: -8679921383154817045, guid: 29bc3b5935a467243bac1e8417132fa9, type: 3}
      propertyPath: m_LocalEulerAnglesHint.x
      value: 0
      objectReference: {fileID: 0}
    - target: {fileID: -8679921383154817045, guid: 29bc3b5935a467243bac1e8417132fa9, type: 3}
      propertyPath: m_LocalEulerAnglesHint.y
      value: 0
      objectReference: {fileID: 0}
    - target: {fileID: -8679921383154817045, guid: 29bc3b5935a467243bac1e8417132fa9, type: 3}
      propertyPath: m_LocalEulerAnglesHint.z
      value: 0
      objectReference: {fileID: 0}
    - target: {fileID: 919132149155446097, guid: 29bc3b5935a467243bac1e8417132fa9, type: 3}
      propertyPath: m_Name
      value: atakNiebieski
      objectReference: {fileID: 0}
    - target: {fileID: 6317578925029434746, guid: 29bc3b5935a467243bac1e8417132fa9, type: 3}
      propertyPath: m_Materials.Array.data[0]
      value: 
      objectReference: {fileID: 2100000, guid: f6abb4cefcaf8e64ea4d673cdd7b67de, type: 2}
    - target: {fileID: 6829333093618665122, guid: 29bc3b5935a467243bac1e8417132fa9, type: 3}
      propertyPath: m_Materials.Array.data[0]
      value: 
      objectReference: {fileID: 2100000, guid: f6abb4cefcaf8e64ea4d673cdd7b67de, type: 2}
    - target: {fileID: 8100320773420232829, guid: 29bc3b5935a467243bac1e8417132fa9, type: 3}
      propertyPath: m_Materials.Array.data[0]
      value: 
      objectReference: {fileID: 2100000, guid: f6abb4cefcaf8e64ea4d673cdd7b67de, type: 2}
    m_RemovedComponents: []
  m_SourcePrefab: {fileID: 100100000, guid: 29bc3b5935a467243bac1e8417132fa9, type: 3}
--- !u!4 &3384873522245321308 stripped
Transform:
  m_CorrespondingSourceObject: {fileID: -8679921383154817045, guid: 29bc3b5935a467243bac1e8417132fa9, type: 3}
  m_PrefabInstance: {fileID: 2986948636647335351}
  m_PrefabAsset: {fileID: 0}
