%YAML 1.1
%TAG !u! tag:unity3d.com,2011:
--- !u!114 &11400000
MonoBehaviour:
  m_ObjectHideFlags: 0
  m_CorrespondingSourceObject: {fileID: 0}
  m_PrefabInstance: {fileID: 0}
  m_PrefabAsset: {fileID: 0}
  m_GameObject: {fileID: 0}
  m_Enabled: 1
  m_EditorHideFlags: 0
  m_Script: {fileID: 11500000, guid: f3036ac7b560cad4db67159a3e73d62f, type: 3}
  m_Name: Enemy List
  m_EditorClassIdentifier: 
  enemyList:
  - {fileID: 7363238305348937329, guid: 8522f2f9fec48184b8dfab8e38c6d58b, type: 3}
  - {fileID: 4932443131392943195, guid: 4ea8217e7ae3a3446afaea370f312304, type: 3}
